^C:\USERS\USER\DOCUMENTS\VISUAL STUDIO 2013\PROJECTS\HW_YONIZALCMAN_01\HW_YONIZALCMAN_01\DEBUG\MAIN.OBJ|C:\USERS\USER\DOCUMENTS\VISUAL STUDIO 2013\PROJECTS\HW_YONIZALCMAN_01\HW_YONIZALCMAN_01\DEBUG\QUEUE.OBJ
C:\USERS\USER\DOCUMENTS\VISUAL STUDIO 2013\PROJECTS\HW_YONIZALCMAN_01\DEBUG\HW_YONIZALCMAN_01.ILK
C:\USERS\USER\DOCUMENTS\VISUAL STUDIO 2013\PROJECTS\HW_YONIZALCMAN_01\DEBUG\HW_YONIZALCMAN_01.EXE
C:\USERS\USER\DOCUMENTS\VISUAL STUDIO 2013\PROJECTS\HW_YONIZALCMAN_01\DEBUG\HW_YONIZALCMAN_01.PDB
