^C:\USERS\USER\DOCUMENTS\VISUAL STUDIO 2013\PROJECTS\HW_YONIZALCMAN_01\02_YONIZALCMAN\LINKEDLIST.CPP|C:\USERS\USER\DOCUMENTS\VISUAL STUDIO 2013\PROJECTS\HW_YONIZALCMAN_01\02_YONIZALCMAN\MAIN.CPP
C:\USERS\USER\DOCUMENTS\VISUAL STUDIO 2013\PROJECTS\HW_YONIZALCMAN_01\02_YONIZALCMAN\DEBUG\VC120.PDB
C:\USERS\USER\DOCUMENTS\VISUAL STUDIO 2013\PROJECTS\HW_YONIZALCMAN_01\02_YONIZALCMAN\DEBUG\VC120.IDB
C:\USERS\USER\DOCUMENTS\VISUAL STUDIO 2013\PROJECTS\HW_YONIZALCMAN_01\02_YONIZALCMAN\DEBUG\LINKEDLIST.OBJ
C:\USERS\USER\DOCUMENTS\VISUAL STUDIO 2013\PROJECTS\HW_YONIZALCMAN_01\02_YONIZALCMAN\DEBUG\MAIN.OBJ
^C:\USERS\USER\DOCUMENTS\VISUAL STUDIO 2013\PROJECTS\HW_YONIZALCMAN_01\02_YONIZALCMAN\LINKEDLIST.CPP
C:\USERS\USER\DOCUMENTS\VISUAL STUDIO 2013\PROJECTS\HW_YONIZALCMAN_01\02_YONIZALCMAN\DEBUG\VC120.PDB
C:\USERS\USER\DOCUMENTS\VISUAL STUDIO 2013\PROJECTS\HW_YONIZALCMAN_01\02_YONIZALCMAN\DEBUG\VC120.IDB
C:\USERS\USER\DOCUMENTS\VISUAL STUDIO 2013\PROJECTS\HW_YONIZALCMAN_01\02_YONIZALCMAN\DEBUG\LINKEDLIST.OBJ
^C:\USERS\USER\DOCUMENTS\VISUAL STUDIO 2013\PROJECTS\HW_YONIZALCMAN_01\02_YONIZALCMAN\MAIN.CPP
C:\USERS\USER\DOCUMENTS\VISUAL STUDIO 2013\PROJECTS\HW_YONIZALCMAN_01\02_YONIZALCMAN\DEBUG\VC120.PDB
C:\USERS\USER\DOCUMENTS\VISUAL STUDIO 2013\PROJECTS\HW_YONIZALCMAN_01\02_YONIZALCMAN\DEBUG\VC120.IDB
C:\USERS\USER\DOCUMENTS\VISUAL STUDIO 2013\PROJECTS\HW_YONIZALCMAN_01\02_YONIZALCMAN\DEBUG\MAIN.OBJ
^C:\USERS\USER\DOCUMENTS\VISUAL STUDIO 2013\PROJECTS\HW_YONIZALCMAN_01\02_YONIZALCMAN\LINKEDLIST.CPP|C:\USERS\USER\DOCUMENTS\VISUAL STUDIO 2013\PROJECTS\HW_YONIZALCMAN_01\02_YONIZALCMAN\MAIN.CPP|C:\USERS\USER\DOCUMENTS\VISUAL STUDIO 2013\PROJECTS\HW_YONIZALCMAN_01\02_YONIZALCMAN\UTILS.CPP
C:\USERS\USER\DOCUMENTS\VISUAL STUDIO 2013\PROJECTS\HW_YONIZALCMAN_01\02_YONIZALCMAN\DEBUG\VC120.PDB
C:\USERS\USER\DOCUMENTS\VISUAL STUDIO 2013\PROJECTS\HW_YONIZALCMAN_01\02_YONIZALCMAN\DEBUG\VC120.IDB
C:\USERS\USER\DOCUMENTS\VISUAL STUDIO 2013\PROJECTS\HW_YONIZALCMAN_01\02_YONIZALCMAN\DEBUG\LINKEDLIST.OBJ
C:\USERS\USER\DOCUMENTS\VISUAL STUDIO 2013\PROJECTS\HW_YONIZALCMAN_01\02_YONIZALCMAN\DEBUG\MAIN.OBJ
^C:\USERS\USER\DOCUMENTS\VISUAL STUDIO 2013\PROJECTS\HW_YONIZALCMAN_01\02_YONIZALCMAN\UTILS.CPP
C:\USERS\USER\DOCUMENTS\VISUAL STUDIO 2013\PROJECTS\HW_YONIZALCMAN_01\02_YONIZALCMAN\DEBUG\VC120.PDB
C:\USERS\USER\DOCUMENTS\VISUAL STUDIO 2013\PROJECTS\HW_YONIZALCMAN_01\02_YONIZALCMAN\DEBUG\VC120.IDB
C:\USERS\USER\DOCUMENTS\VISUAL STUDIO 2013\PROJECTS\HW_YONIZALCMAN_01\02_YONIZALCMAN\DEBUG\UTILS.OBJ
^C:\USERS\USER\DOCUMENTS\VISUAL STUDIO 2013\PROJECTS\HW_YONIZALCMAN_01\02_YONIZALCMAN\MAIN.CPP|C:\USERS\USER\DOCUMENTS\VISUAL STUDIO 2013\PROJECTS\HW_YONIZALCMAN_01\02_YONIZALCMAN\UTILS.CPP
C:\USERS\USER\DOCUMENTS\VISUAL STUDIO 2013\PROJECTS\HW_YONIZALCMAN_01\02_YONIZALCMAN\DEBUG\VC120.PDB
C:\USERS\USER\DOCUMENTS\VISUAL STUDIO 2013\PROJECTS\HW_YONIZALCMAN_01\02_YONIZALCMAN\DEBUG\VC120.IDB
C:\USERS\USER\DOCUMENTS\VISUAL STUDIO 2013\PROJECTS\HW_YONIZALCMAN_01\02_YONIZALCMAN\DEBUG\MAIN.OBJ
C:\USERS\USER\DOCUMENTS\VISUAL STUDIO 2013\PROJECTS\HW_YONIZALCMAN_01\02_YONIZALCMAN\DEBUG\UTILS.OBJ
^C:\USERS\USER\DESKTOP\HW_01_YONIZALCMAN\02_YONIZALCMAN\LINKEDLIST.CPP|C:\USERS\USER\DESKTOP\HW_01_YONIZALCMAN\02_YONIZALCMAN\MAIN.CPP|C:\USERS\USER\DESKTOP\HW_01_YONIZALCMAN\02_YONIZALCMAN\UTILS.CPP
C:\USERS\USER\DESKTOP\HW_01_YONIZALCMAN\02_YONIZALCMAN\DEBUG\VC120.PDB
C:\USERS\USER\DESKTOP\HW_01_YONIZALCMAN\02_YONIZALCMAN\DEBUG\VC120.IDB
C:\USERS\USER\DESKTOP\HW_01_YONIZALCMAN\02_YONIZALCMAN\DEBUG\LINKEDLIST.OBJ
C:\USERS\USER\DESKTOP\HW_01_YONIZALCMAN\02_YONIZALCMAN\DEBUG\MAIN.OBJ
C:\USERS\USER\DESKTOP\HW_01_YONIZALCMAN\02_YONIZALCMAN\DEBUG\UTILS.OBJ
^C:\USERS\USER\DESKTOP\HW_01_YONIZALCMAN\02_YONIZALCMAN\LINKEDLIST.CPP
C:\USERS\USER\DESKTOP\HW_01_YONIZALCMAN\02_YONIZALCMAN\DEBUG\VC120.PDB
^C:\USERS\USER\DESKTOP\HW_01_YONIZALCMAN\02_YONIZALCMAN\MAIN.CPP
C:\USERS\USER\DESKTOP\HW_01_YONIZALCMAN\02_YONIZALCMAN\DEBUG\VC120.PDB
^C:\USERS\USER\DESKTOP\HW_01_YONIZALCMAN\02_YONIZALCMAN\UTILS.CPP
C:\USERS\USER\DESKTOP\HW_01_YONIZALCMAN\02_YONIZALCMAN\DEBUG\VC120.PDB
^C:\USERS\USER\DESKTOP\GIT_HW01\REPO\02_YONIZALCMAN\LINKEDLIST.CPP|C:\USERS\USER\DESKTOP\GIT_HW01\REPO\02_YONIZALCMAN\MAIN.CPP|C:\USERS\USER\DESKTOP\GIT_HW01\REPO\02_YONIZALCMAN\STACK.CPP|C:\USERS\USER\DESKTOP\GIT_HW01\REPO\02_YONIZALCMAN\UTILS.CPP
C:\USERS\USER\DESKTOP\GIT_HW01\REPO\02_YONIZALCMAN\DEBUG\VC120.PDB
C:\USERS\USER\DESKTOP\GIT_HW01\REPO\02_YONIZALCMAN\DEBUG\VC120.IDB
C:\USERS\USER\DESKTOP\GIT_HW01\REPO\02_YONIZALCMAN\DEBUG\LINKEDLIST.OBJ
C:\USERS\USER\DESKTOP\GIT_HW01\REPO\02_YONIZALCMAN\DEBUG\MAIN.OBJ
C:\USERS\USER\DESKTOP\GIT_HW01\REPO\02_YONIZALCMAN\DEBUG\UTILS.OBJ
^C:\USERS\USER\DESKTOP\GIT_HW01\REPO\02_YONIZALCMAN\LINKEDLIST.CPP
C:\USERS\USER\DESKTOP\GIT_HW01\REPO\02_YONIZALCMAN\DEBUG\VC120.PDB
^C:\USERS\USER\DESKTOP\GIT_HW01\REPO\02_YONIZALCMAN\MAIN.CPP
C:\USERS\USER\DESKTOP\GIT_HW01\REPO\02_YONIZALCMAN\DEBUG\VC120.PDB
^C:\USERS\USER\DESKTOP\GIT_HW01\REPO\02_YONIZALCMAN\STACK.CPP
C:\USERS\USER\DESKTOP\GIT_HW01\REPO\02_YONIZALCMAN\DEBUG\VC120.PDB
C:\USERS\USER\DESKTOP\GIT_HW01\REPO\02_YONIZALCMAN\DEBUG\VC120.IDB
^C:\USERS\USER\DESKTOP\GIT_HW01\REPO\02_YONIZALCMAN\UTILS.CPP
C:\USERS\USER\DESKTOP\GIT_HW01\REPO\02_YONIZALCMAN\DEBUG\VC120.PDB
