^C:\USERS\USER\DOCUMENTS\VISUAL STUDIO 2013\PROJECTS\HW_YONIZALCMAN_01\HW_YONIZALCMAN_01\DEBUG\MAIN.OBJ|C:\USERS\USER\DOCUMENTS\VISUAL STUDIO 2013\PROJECTS\HW_YONIZALCMAN_01\HW_YONIZALCMAN_01\DEBUG\QUEUE.OBJ
C:\USERS\USER\DOCUMENTS\VISUAL STUDIO 2013\PROJECTS\HW_YONIZALCMAN_01\DEBUG\01_YONIZALCMAN.ILK
C:\USERS\USER\DOCUMENTS\VISUAL STUDIO 2013\PROJECTS\HW_YONIZALCMAN_01\DEBUG\01_YONIZALCMAN.EXE
C:\USERS\USER\DOCUMENTS\VISUAL STUDIO 2013\PROJECTS\HW_YONIZALCMAN_01\DEBUG\01_YONIZALCMAN.PDB
^C:\USERS\USER\DESKTOP\GIT_HW01\REPO\HW_YONIZALCMAN_01\DEBUG\MAIN.OBJ|C:\USERS\USER\DESKTOP\GIT_HW01\REPO\HW_YONIZALCMAN_01\DEBUG\QUEUE.OBJ
C:\USERS\USER\DESKTOP\GIT_HW01\REPO\DEBUG\01_YONIZALCMAN.ILK
C:\USERS\USER\DESKTOP\GIT_HW01\REPO\DEBUG\01_YONIZALCMAN.EXE
C:\USERS\USER\DESKTOP\GIT_HW01\REPO\DEBUG\01_YONIZALCMAN.PDB
